{
  "data": [
    {
      "g_places_id": "ChIJS84yvEqFUUYRowqu_cN4BsY",
      "sheets": [
        {
          "d4c0298c-7222-46f9-b09e-b1821cdcce53": "bc54152f-7714-4a59-92b5-12e7967ae411",
          "e21a3fa4-3dc1-4de4-ae92-5511546c8399": true,
          "86ca8fd6-f673-4eba-b8a8-5a611de91dcb": true
        }
      ]
    },
    {
      "g_places_id": "ChIJQwwJHuOjU0YR7dnxlHGnc6g",
      "sheets": [
        {
          "d4c0298c-7222-46f9-b09e-b1821cdcce53": "1ff4537a-08f3-4fcc-ac73-209e0c20f1e6",
          "e21a3fa4-3dc1-4de4-ae92-5511546c8399": false,
          "86ca8fd6-f673-4eba-b8a8-5a611de91dcb": true
        }
      ]
    }
  ]
}
